21.0819715481291	80.1936632253471
19.9734849432356	80.4927020291919
18.0588262620559	80.2235671057316
17.9580547525202	79.8946244215023
16.4128916063050	80.0740477038092
15.3715860077687	79.6553933784265
14.5654139314825	79.6852972588109
13.6584703456606	79.8049127803489
12.7515267598386	79.8348166607334
11.9789451867310	79.8049127803489
11.0048205945519	79.7451050195799
10.9376395881947	79.3862584549662
11.5086781422307	78.6685653257387
12.8858887725530	78.2200071199715
14.9684999696256	78.2798148807405
13.5912893393034	77.9209683161267
13.9607848742679	77.4724101103595
14.8341379569112	77.1135635457458
15.4051765109473	76.8743325026700
16.1441675808763	76.8145247419010
17.0847016698768	76.5154859380562
17.3198351921269	77.0836596653613
18.9657698478779	78.0405838376646
19.0665413574137	78.4293342826629
20.2757994718429	78.6386614453542
20.7124760131646	78.1601993592026
21.7537816117009	77.9807760768957
20.6788855099860	77.4425062299751
22.7614967070586	77.2630829476682
24.7433363945955	77.7415450338198
22.9966302293088	78.0405838376646
22.1904581530226	78.4293342826629
21.5186480894508	78.7881808472766
18.9993603510565	79.2068351726593
18.7642268288063	79.6852972588109
19.8391229305212	79.5656817372730
21.2499240640221	79.2666429334283
22.3248201657370	79.2965468138127
23.8028023055949	79.1769312922748
24.5417933755239	79.2666429334283
25.8182324963104	79.4460662157351
27.0610811139182	79.8049127803489
26.9939001075611	80.1637593449626
25.9861850122033	80.2235671057316
24.7769268977741	80.2235671057316
23.9707548214879	80.3132787468850
23.1645827452017	80.4328942684229
21.8545531212367	80.2833748665005
21.0819715481291	80.1936632253471
