-44.3499165196572	64.6327935141090
-43.4296257662103	65.3937760701787
-42.3778649051281	66.2911611598837
-41.3918390978635	66.9875319894947
-40.2743431829637	67.5187839626000
-38.9596421066109	67.5259630433176
-37.3381774457759	67.5116048818824
-35.8700945771820	67.5116048818824
-34.4239233931939	67.5044258011647
-32.9558405246000	67.4900676397294
-33.2845157936882	67.2100834917415
-33.5693676935646	66.9659947473418
-33.8761312780470	66.7003687607891
-34.1828948625293	66.5711453078716
-34.9278921391292	66.2624448370131
-35.4537725696703	66.0686096576369
-36.0453880540290	65.9106698818488
-36.6589152229936	65.7455510253431
-37.0314138612936	65.6665811374490
-37.9297929301346	65.6665811374490
-38.4775850452816	65.6665811374490
-39.0253771604286	65.5947903302727
-39.6827276986050	65.4871041195081
-40.0114029676931	65.0778965186026
-40.9974287749577	65.1640454872143
-40.4277249752049	64.5107491419091
-41.1727222518048	64.5107491419091
-42.7941869126398	64.5897190298031
-43.6268309276632	64.6256144333913
-44.3499165196572	64.6327935141090