  -73.0000000000000        78.1700000000000     
  -71.6700000000000        77.8700000000000     
  -70.3300000000000        77.9200000000000     
  -70.0000000000000        77.5800000000000     
  -68.4200000000000        77.3500000000000     
  -70.0000000000000        77.2500000000000     
  -71.1700000000000        77.0200000000000     
  -70.2500000000000        76.8000000000000     
  -68.7500000000000        76.6000000000000     
  -69.5000000000000        76.3800000000000     
  -68.5000000000000        76.1300000000000     
  -66.5800000000000        75.9200000000000     
  -65.3300000000000        76.1300000000000     
  -63.4200000000000        76.1700000000000     
  -61.6700000000000        76.1700000000000     
  -60.0000000000000        75.8200000000000     
  -58.3300000000000        75.6700000000000     
  -57.9409000000000        75.6703000000000     
  -57.5518000000000        75.6706000000000     
  -57.1627000000000        75.6709000000000     
  -56.7736000000000        75.6712000000000     
  -56.3845000000000        75.6715000000000     
  -55.9954000000000        75.6718000000000     
  -55.6063000000000        75.6721000000000     
  -55.2172000000000        75.6724000000000     
  -54.8281000000000        75.6727000000000     
  -54.4390000000000        75.6730000000000     
  -54.0499000000000        75.6733000000000     
  -53.6608000000000        75.6736000000000     
  -53.2717000000000        75.6739000000000     
  -52.8826000000000        75.6742000000000     
  -52.4935000000000        75.6745000000000     
  -52.1044000000000        75.6748000000000     
  -51.7153000000000        75.6751000000000     
  -51.3262000000000        75.6754000000000     
  -50.9371000000000        75.6757000000000     
  -50.5480000000000        75.6760000000000     
  -62.2340000000000        78.2200000000000     
  -62.7723000000000        78.2175000000000     
  -63.3106000000000        78.2150000000000     
  -63.8489000000000        78.2125000000000     
  -64.3872000000000        78.2100000000000     
  -64.9255000000000        78.2075000000000     
  -65.4638000000000        78.2050000000000     
  -66.0021000000000        78.2025000000000     
  -66.5404000000000        78.2000000000000     
  -67.0787000000000        78.1975000000000     
  -67.6170000000000        78.1950000000000     
  -68.1553000000000        78.1925000000000     
  -68.6936000000000        78.1900000000000     
  -69.2319000000000        78.1875000000000     
  -69.7702000000000        78.1850000000000     
  -70.3085000000000        78.1825000000000     
  -70.8468000000000        78.1800000000000     
  -71.3851000000000        78.1775000000000     
  -71.9234000000000        78.1750000000000     
  -72.4617000000000        78.1725000000000     
  -73.0000000000000        78.1700000000000     
