  -39.2641000000000        75.6847000000000     
  -39.2533000000000        72.7466000000000     
  -38.9150000000000        72.7500000000000     
  -38.5767000000000        72.7534000000000     
  -38.2384000000000        72.7568000000000     
  -37.9001000000000        72.7602000000000     
  -37.5618000000000        72.7636000000000     
  -37.2235000000000        72.7670000000000     
  -36.8852000000000        72.7704000000000     
  -36.5469000000000        72.7738000000000     
  -36.2086000000000        72.7772000000000     
  -35.8703000000000        72.7806000000000     
  -35.5320000000000        72.7840000000000     
  -35.1937000000000        72.7874000000000     
  -34.8554000000000        72.7908000000000     
  -34.5171000000000        72.7942000000000     
  -34.1788000000000        72.7976000000000     
  -33.8405000000000        72.8010000000000     
  -33.5022000000000        72.8044000000000     
  -33.1639000000000        72.8078000000000     
  -32.8256000000000        72.8112000000000     
  -32.4873000000000        72.8146000000000     
  -32.1490000000000        72.8180000000000     
  -31.8107000000000        72.8214000000000     
  -31.4724000000000        72.8248000000000     
  -31.1341000000000        72.8282000000000     
  -30.7958000000000        72.8316000000000     
  -29.5366000000000        75.6922000000000     
  -29.9257000000000        75.6919000000000     
  -30.3148000000000        75.6916000000000     
  -30.7039000000000        75.6913000000000     
  -31.0930000000000        75.6910000000000     
  -31.4821000000000        75.6907000000000     
  -31.8712000000000        75.6904000000000     
  -32.2603000000000        75.6901000000000     
  -32.6494000000000        75.6898000000000     
  -33.0385000000000        75.6895000000000     
  -33.4276000000000        75.6892000000000     
  -33.8167000000000        75.6889000000000     
  -34.2058000000000        75.6886000000000     
  -34.5949000000000        75.6883000000000     
  -34.9840000000000        75.6880000000000     
  -35.3731000000000        75.6877000000000     
  -35.7622000000000        75.6874000000000     
  -36.1513000000000        75.6871000000000     
  -36.5404000000000        75.6868000000000     
  -36.9295000000000        75.6865000000000     
  -37.3186000000000        75.6862000000000     
  -37.7077000000000        75.6859000000000     
  -38.0968000000000        75.6856000000000     
  -38.4859000000000        75.6853000000000     
  -38.8750000000000        75.6850000000000     
  -39.2641000000000        75.6847000000000     
