  -48.6025000000000        75.6775000000000     
  -47.3725000000000        72.6650000000000     
  -47.0342000000000        72.6684000000000     
  -46.6959000000000        72.6718000000000     
  -46.3576000000000        72.6752000000000     
  -46.0193000000000        72.6786000000000     
  -45.6810000000000        72.6820000000000     
  -45.3427000000000        72.6854000000000     
  -45.0044000000000        72.6888000000000     
  -44.6661000000000        72.6922000000000     
  -44.3278000000000        72.6956000000000     
  -43.9895000000000        72.6990000000000     
  -43.6512000000000        72.7024000000000     
  -43.3129000000000        72.7058000000000     
  -42.9746000000000        72.7092000000000     
  -42.6363000000000        72.7126000000000     
  -42.2980000000000        72.7160000000000     
  -41.9597000000000        72.7194000000000     
  -41.6214000000000        72.7228000000000     
  -41.2831000000000        72.7262000000000     
  -40.9448000000000        72.7296000000000     
  -40.6065000000000        72.7330000000000     
  -40.2682000000000        72.7364000000000     
  -39.9299000000000        72.7398000000000     
  -39.5916000000000        72.7432000000000     
  -39.2533000000000        72.7466000000000     
  -39.2641000000000        75.6847000000000     
  -39.6532000000000        75.6844000000000     
  -40.0423000000000        75.6841000000000     
  -40.4314000000000        75.6838000000000     
  -40.8205000000000        75.6835000000000     
  -41.2096000000000        75.6832000000000     
  -41.5987000000000        75.6829000000000     
  -41.9878000000000        75.6826000000000     
  -42.3769000000000        75.6823000000000     
  -42.7660000000000        75.6820000000000     
  -43.1551000000000        75.6817000000000     
  -43.5442000000000        75.6814000000000     
  -43.9333000000000        75.6811000000000     
  -44.3224000000000        75.6808000000000     
  -44.7115000000000        75.6805000000000     
  -45.1006000000000        75.6802000000000     
  -45.4897000000000        75.6799000000000     
  -45.8788000000000        75.6796000000000     
  -46.2679000000000        75.6793000000000     
  -46.6570000000000        75.6790000000000     
  -47.0461000000000        75.6787000000000     
  -47.4352000000000        75.6784000000000     
  -47.8243000000000        75.6781000000000     
  -48.2134000000000        75.6778000000000     
  -48.6025000000000        75.6775000000000     
