  -39.2912000000000        80.9200000000000     
  -38.5488000000000        78.3300000000000     
  -38.0105000000000        78.3325000000000     
  -37.4722000000000        78.3350000000000     
  -36.9339000000000        78.3375000000000     
  -36.3956000000000        78.3400000000000     
  -35.8573000000000        78.3425000000000     
  -35.3190000000000        78.3450000000000     
  -34.7807000000000        78.3475000000000     
  -34.2424000000000        78.3500000000000     
  -33.7041000000000        78.3525000000000     
  -33.1658000000000        78.3550000000000     
  -32.6275000000000        78.3575000000000     
  -32.0892000000000        78.3600000000000     
  -31.5509000000000        78.3625000000000     
  -31.0126000000000        78.3650000000000     
  -30.4743000000000        78.3675000000000     
  -29.9360000000000        78.3700000000000     
  -29.3977000000000        78.3725000000000     
  -28.8594000000000        78.3750000000000     
  -28.3211000000000        78.3775000000000     
  -27.7828000000000        78.3800000000000     
  -27.2445000000000        78.3825000000000     
  -26.7062000000000        78.3850000000000     
  -26.1679000000000        78.3875000000000     
  -25.6296000000000        78.3900000000000     
  -25.0913000000000        78.3925000000000     
  -24.5530000000000        78.3950000000000     
  -24.0147000000000        78.3975000000000     
  -23.4764000000000        78.4000000000000     
  -22.9381000000000        78.4025000000000     
  -22.3998000000000        78.4050000000000     
  -21.8615000000000        78.4075000000000     
  -21.3232000000000        78.4100000000000     
  -20.7849000000000        78.4125000000000     
  -20.2466000000000        78.4150000000000     
  -19.7083000000000        78.4175000000000     
  -19.1700000000000        78.4200000000000     
  -19.5000000000000        78.8300000000000     
  -18.5000000000000        79.1300000000000     
  -18.0800000000000        79.5300000000000     
  -17.1700000000000        79.9700000000000     
  -15.8300000000000        80.4200000000000     
  -14.3300000000000        80.7500000000000     
  -13.6960500000000        80.8942500000000     
  -13.0419400000000        81.0373700000000     
  -12.3668700000000        81.1793100000000     
  -11.6700000000000        81.3200000000000     
  -12.0526600000000        81.4105900000000     
  -12.0526600000000        81.4105900000000     
  -12.4433900000000        81.5008000000000     
  -12.8424300000000        81.5906000000000     
  -13.2500000000000        81.6800000000000     
  -14.3066700000000        81.7200000000000     
  -15.3633300000000        81.7600000000000     
  -16.4200000000000        81.8000000000000     
  -18.1700000000000        81.4800000000000     
  -19.5000000000000        81.5800000000000     
  -20.7500000000000        81.3200000000000     
  -22.5000000000000        81.0800000000000     
  -23.6650000000000        81.0000000000000     
  -24.8300000000000        80.9200000000000     
  -25.2317000000000        80.9200000000000     
  -25.6334000000000        80.9200000000000     
  -26.0351000000000        80.9200000000000     
  -26.4368000000000        80.9200000000000     
  -26.8385000000000        80.9200000000000     
  -27.2402000000000        80.9200000000000     
  -27.6419000000000        80.9200000000000     
  -28.0436000000000        80.9200000000000     
  -28.4453000000000        80.9200000000000     
  -28.8470000000000        80.9200000000000     
  -29.2487000000000        80.9200000000000     
  -29.6504000000000        80.9200000000000     
  -30.0521000000000        80.9200000000000     
  -30.4538000000000        80.9200000000000     
  -30.8555000000000        80.9200000000000     
  -31.2572000000000        80.9200000000000     
  -31.6589000000000        80.9200000000000     
  -32.0606000000000        80.9200000000000     
  -32.4623000000000        80.9200000000000     
  -32.8640000000000        80.9200000000000     
  -33.2657000000000        80.9200000000000     
  -33.6674000000000        80.9200000000000     
  -34.0691000000000        80.9200000000000     
  -34.4708000000000        80.9200000000000     
  -34.8725000000000        80.9200000000000     
  -35.2742000000000        80.9200000000000     
  -35.6759000000000        80.9200000000000     
  -36.0776000000000        80.9200000000000     
  -36.4793000000000        80.9200000000000     
  -36.8810000000000        80.9200000000000     
  -37.2827000000000        80.9200000000000     
  -37.6844000000000        80.9200000000000     
  -38.0861000000000        80.9200000000000     
  -38.4878000000000        80.9200000000000     
  -38.8895000000000        80.9200000000000     
