  -34.2424000000000        78.3500000000000     
  -30.3148000000000        75.6916000000000     
  -29.9257000000000        75.6919000000000     
  -29.5366000000000        75.6922000000000     
  -29.1475000000000        75.6925000000000     
  -28.7584000000000        75.6928000000000     
  -28.3693000000000        75.6931000000000     
  -27.9802000000000        75.6934000000000     
  -27.5911000000000        75.6937000000000     
  -27.2020000000000        75.6940000000000     
  -26.8129000000000        75.6943000000000     
  -26.4238000000000        75.6946000000000     
  -26.0347000000000        75.6949000000000     
  -25.6456000000000        75.6952000000000     
  -25.2565000000000        75.6955000000000     
  -24.8674000000000        75.6958000000000     
  -24.4783000000000        75.6961000000000     
  -24.0892000000000        75.6964000000000     
  -23.7001000000000        75.6967000000000     
  -23.3110000000000        75.6970000000000     
  -22.9219000000000        75.6973000000000     
  -22.5328000000000        75.6976000000000     
  -22.1437000000000        75.6979000000000     
  -21.7546000000000        75.6982000000000     
  -21.3655000000000        75.6985000000000     
  -20.9764000000000        75.6988000000000     
  -20.5873000000000        75.6991000000000     
  -20.1982000000000        75.6994000000000     
  -19.8091000000000        75.6997000000000     
  -19.4200000000000        75.7000000000000     
  -20.0000000000000        76.2000000000000     
  -21.5000000000000        76.3000000000000     
  -21.4200000000000        76.6700000000000     
  -20.3300000000000        76.9200000000000     
  -18.4200000000000        76.7500000000000     
  -18.1700000000000        77.0800000000000     
  -18.8300000000000        77.5800000000000     
  -19.6700000000000        77.9200000000000     
  -19.1700000000000        78.4200000000000     
  -19.7083000000000        78.4175000000000     
  -20.2466000000000        78.4150000000000     
  -20.7849000000000        78.4125000000000     
  -21.3232000000000        78.4100000000000     
  -21.8615000000000        78.4075000000000     
  -22.3998000000000        78.4050000000000     
  -22.9381000000000        78.4025000000000     
  -23.4764000000000        78.4000000000000     
  -24.0147000000000        78.3975000000000     
  -24.5530000000000        78.3950000000000     
  -25.0913000000000        78.3925000000000     
  -25.6296000000000        78.3900000000000     
  -26.1679000000000        78.3875000000000     
  -26.7062000000000        78.3850000000000     
  -27.2445000000000        78.3825000000000     
  -27.7828000000000        78.3800000000000     
  -28.3211000000000        78.3775000000000     
  -28.8594000000000        78.3750000000000     
  -29.3977000000000        78.3725000000000     
  -29.9360000000000        78.3700000000000     
  -30.4743000000000        78.3675000000000     
  -31.0126000000000        78.3650000000000     
  -31.5509000000000        78.3625000000000     
  -32.0892000000000        78.3600000000000     
  -32.6275000000000        78.3575000000000     
  -33.1658000000000        78.3550000000000     
  -33.7041000000000        78.3525000000000     
